[gd_scene load_steps=6 format=2]

[ext_resource path="res://fonts/ThatNogoFontCasual.ttf" type="DynamicFontData" id=1]
[ext_resource path="res://fonts/Some Time Later.otf" type="DynamicFontData" id=2]
[ext_resource path="res://Scripts/button-title-play.gd" type="Script" id=3]

[sub_resource type="DynamicFont" id=1]
size = 120
use_filter = true
font_data = ExtResource( 2 )

[sub_resource type="DynamicFont" id=2]
size = 72
font_data = ExtResource( 1 )

[node name="Control" type="Control"]
anchor_right = 1.0
anchor_bottom = 1.0
margin_left = -2.05054
margin_right = -2.05054
__meta__ = {
"_edit_use_anchors_": false
}

[node name="ColorRect" type="ColorRect" parent="."]
margin_right = 1280.0
margin_bottom = 720.0
color = Color( 0.0862745, 0.14902, 0.0823529, 1 )
__meta__ = {
"_edit_use_anchors_": false
}

[node name="Label" type="Label" parent="."]
margin_left = -32.8087
margin_top = 47.5233
margin_right = 1247.19
margin_bottom = 451.523
rect_rotation = -7.8
custom_fonts/font = SubResource( 1 )
custom_colors/font_color = Color( 0.992157, 1, 0, 1 )
custom_colors/font_color_shadow = Color( 0, 0.101961, 1, 1 )
custom_constants/shadow_offset_x = 13
custom_constants/shadow_offset_y = 12
text = "Jogo 3D Muito TOP!!!"
align = 1
valign = 1

[node name="button-title-play" type="Button" parent="."]
margin_left = 450.0
margin_top = 450.0
margin_right = 850.0
margin_bottom = 570.0
custom_fonts/font = SubResource( 2 )
custom_colors/font_color = Color( 0.803922, 0, 0, 1 )
custom_colors/font_color_hover = Color( 0.752941, 0.654902, 0.0313726, 1 )
custom_colors/font_color_pressed = Color( 0.227451, 0.72549, 0.137255, 1 )
text = "JOGAR!"
flat = true
script = ExtResource( 3 )
__meta__ = {
"_edit_use_anchors_": false
}
[connection signal="pressed" from="button-title-play" to="button-title-play" method="_on_buttontitleplay_pressed"]
